…
```{.output}
# A tibble: 10,000 × 12
   callnumber        title     author location tot_chkout loutdate subject isbn 
   <chr>             <chr>     <chr>  <chr>         <dbl> <chr>    <chr>   <chr>
 1 001.94 Don 2000   Bermuda … writt… juv               6 11-21-2… Reader… 0789…
 2 001.942 Bro 1999  Invaders… writt… juv               2 02-07-2… Reader… 0789…
 3 027.073 App 2001  Down Cut… by Ka… juv               3 10-16-2… Packho… 0060…
 4 133.5 Hua 1999    The Chin… by Ch… juv               6 11-22-2… Astrol… 0060…
 5 170 She 2000      Judge Ju… illus… juv               7 04-10-2… Childr… 0060…
 6 170.44 She 2001   Judge Ju… illus… juv               6 11-12-2… Conduc… 0060…
 7 220.9505 Gil 2001 A young … retol… juv               4 12-01-2… Bible … 0060…
 8 225.9505 McC 1999 God's Ki… retol… juv               2 08-06-2… Bible … 0689…
 9 292.13 McC 2001   Roman my… retol… juv               4 04-03-2… Mythol… 0689…
10 292.211 McC 1998  Greek go… retol… juv              13 11-16-2… Gods, … 0689…
# ℹ 9,990 more rows
# ℹ 4 more variables: CALL...ITEM. <chr>, pubyear <chr>, format <chr>,
#   subCollection <chr>
```
…
### Selecting variables

The `select()` function allows you to keep or remove specific columns It also
provides a convenient way to reorder variables.


```r
# specify the variables you want to keep by name
booksTitleCheckouts <- select(books, title, tot_chkout)
booksTitleCheckouts
```

```{.output}
# A tibble: 10,000 × 2
   title                                                              tot_chkout
   <chr>                                                                   <dbl>
 1 Bermuda Triangle /                                                          6
 2 Invaders from outer space :|real-life stories of UFOs /                     2
 3 Down Cut Shin Creek :|the pack horse librarians of Kentucky /               3
 4 The Chinese book of animal powers /                                         6
 5 Judge Judy Sheindlin's Win or lose by how you choose! /                     7
 6 Judge Judy Sheindlin's You can't judge a book by its cover :|cool…          6
 7 A young child's Bible /                                                     4
 8 God's Kingdom :|stories from the New Testament /                            2
 9 Roman myths /                                                               4
10 Greek gods and goddesses /                                                 13
# ℹ 9,990 more rows
```
…
### Ordering data

The `arrange()` function in the `dplyr` package allows you to sort your data by alphabetical or numerical order.


```r
booksTitleArrange <- arrange(books, title)

# use desc() to sort a variable in descending order
booksHighestChkout <- arrange(books, desc(tot_chkout))
booksHighestChkout
```

```{.output}
# A tibble: 10,000 × 11
   callnumber title author tot_chkout loutdate subject isbn  callnumber2 pubyear
   <chr>      <chr> <chr>       <dbl> <chr>    <chr>   <chr> <chr>       <chr>  
 1 E Cro 2000 Clic… by Do…        113 01-23-2… Cows -… 0689… E Cro 2000  2000   
 2 PZ7.W6367… The … by Da…        106 03-07-2… Pigs -… 0618… 398.2452 W… 2001   
 3 <NA>       Cook… Janet…        103 03-13-2… Cake -… 0152… E Ste 1999  1999   
 4 PZ7.D5455… Beca… Kate …         79 03-27-2… Dogs -… 0763… Fic Dic 20… 2000   
 5 PZ7.C6775… Upto… Bryan…         69 02-05-2… Harlem… 9780… E Col 2000  2000   
 6 <NA>       <NA>  <NA>           64 08-23-2… <NA>    <NA>  #1  ENC. C… <NA>   
 7 F379.N59 … Thro… Ruby …         63 11-01-2… Bridge… 0590… 920 Bri 19… 1999   
 8 PZ7.C9413… Bud,… Chris…         63 04-03-2… Runawa… 0385… Fic Cur 19… 1999   
 9 E Mar 1992 Brow… by Bi…         61 02-16-2… Color … 0805… E Mar 1992  1992   
10 PZ7.P338 … A ye… Richa…         47 03-26-2… Grandm… 0803… Fic Pec 20… 2000   
# ℹ 9,990 more rows
# ℹ 2 more variables: format <chr>, subCollection <chr>
```
…
```r
myBooks <- books %>%
  filter(format == "book") %>%
  select(title, tot_chkout) %>%
  arrange(desc(tot_chkout))
myBooks
```

```{.output}
# A tibble: 6,983 × 2
   title                                      tot_chkout
   <chr>                                           <dbl>
 1 Click, clack, moo :|cows that type /              113
 2 The three pigs /                                  106
 3 Cook-a-doodle-doo! /                              103
 4 Because of Winn-Dixie /                            79
 5 Uptown /                                           69
 6 Through my eyes /                                  63
 7 Bud, not Buddy /                                   63
 8 Brown bear, brown bear, what do you see? /         61
 9 A year down yonder /                               47
10 Wemberly worried /                                 43
# ℹ 6,973 more rows
```
…
Here is a more complex example:


```r
books %>%
  filter(format == "book") %>%
  mutate(call_class = str_sub(callnumber, 1, 1)) %>%
  group_by(call_class) %>%
  summarize(count = n(),
            sum_tot_chkout = sum(tot_chkout)) %>%
  arrange(desc(sum_tot_chkout))
```

```{.output}
# A tibble: 34 × 3
   call_class count sum_tot_chkout
   <chr>      <int>          <dbl>
 1 E            487           3114
 2 <NA>         459           3024
 3 H           1142           2902
 4 P            800           2645
 5 F            240           1306
 6 Q            333           1305
 7 B            426           1233
 8 R            193            981
 9 L            358            862
10 5             60            838
# ℹ 24 more rows
```
…
Note:  If the final product of this data will be imported into an ILS, you may not want to alter the MARC specific punctuation.  All other audiences will appreciate the text normalizing steps.

Read more about [matching patterns with regular expressions](https://r4ds.had.co.nz/strings.html#matching-patterns-with-regular-expressions).


```r
books %>%
  mutate(title_modified = str_remove(title, "/$")) %>%     # remove the trailing slash
  mutate(title_modified = str_replace(title_modified, "\\s:\\|", ": ")) %>%   # replace ' :|' with ': '
  select(title_modified, title)
```

```{.output}
# A tibble: 10,000 × 2
   title_modified                                                          title
   <chr>                                                                   <chr>
 1 "Bermuda Triangle "                                                     Berm…
 2 "Invaders from outer space: real-life stories of UFOs "                 Inva…
 3 "Down Cut Shin Creek: the pack horse librarians of Kentucky "           Down…
 4 "The Chinese book of animal powers "                                    The …
 5 "Judge Judy Sheindlin's Win or lose by how you choose! "                Judg…
 6 "Judge Judy Sheindlin's You can't judge a book by its cover: cool rule… Judg…
 7 "A young child's Bible "                                                A yo…
 8 "God's Kingdom: stories from the New Testament "                        God'…
 9 "Roman myths "                                                          Roma…
10 "Greek gods and goddesses "                                             Gree…
# ℹ 9,990 more rows
```
…
