…
~~~
# A tibble: 10,000 x 12
   callnumber title author location tot_chkout loutdate subject isbn 
   <chr>      <chr> <chr>  <chr>         <dbl> <chr>    <chr>   <chr>
 1 001.94 Do… Berm… writt… juv               6 11-21-2… Reader… 0789…
 2 001.942 B… Inva… writt… juv               2 02-07-2… Reader… 0789…
 3 027.073 A… Down… by Ka… juv               3 10-16-2… Packho… 0060…
 4 133.5 Hua… The … by Ch… juv               6 11-22-2… Astrol… 0060…
 5 170 She 2… Judg… illus… juv               7 04-10-2… Childr… 0060…
 6 170.44 Sh… Judg… illus… juv               6 11-12-2… Conduc… 0060…
 7 220.9505 … A yo… retol… juv               4 12-01-2… Bible … 0060…
 8 225.9505 … God'… retol… juv               2 08-06-2… Bible … 0689…
 9 292.13 Mc… Roma… retol… juv               4 04-03-2… Mythol… 0689…
10 292.211 M… Gree… retol… juv              13 11-16-2… Gods, … 0689…
# … with 9,990 more rows, and 4 more variables: CALL...ITEM. <chr>,
#   pubyear <chr>, format <chr>, subCollection <chr>
…
The `select()` function allows you to keep or remove specific columns It also
provides a convenient way to reorder variables.


~~~
# specify the variables you want to keep by name
booksTitleCheckouts <- dplyr::select(books, title, tot_chkout)
booksTitleCheckouts
~~~
{: .language-r}



~~~
# A tibble: 10,000 x 2
   title                                                         tot_chkout
   <chr>                                                              <dbl>
 1 Bermuda Triangle /                                                     6
 2 Invaders from outer space :|real-life stories of UFOs /                2
 3 Down Cut Shin Creek :|the pack horse librarians of Kentucky /          3
 4 The Chinese book of animal powers /                                    6
 5 Judge Judy Sheindlin's Win or lose by how you choose! /                7
 6 Judge Judy Sheindlin's You can't judge a book by its cover :…          6
 7 A young child's Bible /                                                4
 8 God's Kingdom :|stories from the New Testament /                       2
 9 Roman myths /                                                          4
10 Greek gods and goddesses /                                            13
# … with 9,990 more rows
…
~~~
booksTitleArrange <- arrange(books, title)

# use desc() to sort a variable in descending order
booksHighestChkout <- arrange(books, desc(tot_chkout))
booksHighestChkout
~~~
{: .language-r}



~~~
# A tibble: 10,000 x 11
   callnumber title author tot_chkout loutdate subject isbn  callnumber2
   <chr>      <chr> <chr>       <dbl> <chr>    <chr>   <chr> <chr>      
 1 E Cro 2000 Clic… by Do…        113 01-23-2… Cows -… 0689… E Cro 2000 
 2 PZ7.W6367… The … by Da…        106 03-07-2… Pigs -… 0618… 398.2452 W…
 3 <NA>       Cook… Janet…        103 03-13-2… Cake -… 0152… E Ste 1999 
 4 PZ7.D5455… Beca… Kate …         79 03-27-2… Dogs -… 0763… Fic Dic 20…
 5 PZ7.C6775… Upto… Bryan…         69 02-05-2… Harlem… 9780… E Col 2000 
 6 <NA>       <NA>  <NA>           64 08-23-2… <NA>    <NA>  #1  ENC. C…
 7 F379.N59 … Thro… Ruby …         63 11-01-2… Bridge… 0590… 920 Bri 19…
 8 PZ7.C9413… Bud,… Chris…         63 04-03-2… Runawa… 0385… Fic Cur 19…
 9 E Mar 1992 Brow… by Bi…         61 02-16-2… Color … 0805… E Mar 1992 
10 PZ7.P338 … A ye… Richa…         47 03-26-2… Grandm… 0803… Fic Pec 20…
# … with 9,990 more rows, and 3 more variables: pubyear <chr>,
#   format <chr>, subCollection <chr>
…
~~~
myBooks <- books %>%
  filter(format == "book") %>%
  select(title, tot_chkout) %>%
  arrange(desc(tot_chkout))
myBooks
~~~
{: .language-r}



~~~
# A tibble: 6,983 x 2
   title                                      tot_chkout
   <chr>                                           <dbl>
 1 Click, clack, moo :|cows that type /              113
 2 The three pigs /                                  106
 3 Cook-a-doodle-doo! /                              103
 4 Because of Winn-Dixie /                            79
 5 Uptown /                                           69
 6 Through my eyes /                                  63
 7 Bud, not Buddy /                                   63
 8 Brown bear, brown bear, what do you see? /         61
 9 A year down yonder /                               47
10 Wemberly worried /                                 43
# … with 6,973 more rows
…
~~~
books %>% 
  filter(format == "book") %>%
  mutate(call_class = str_sub(callnumber, 1, 1)) %>%
  group_by(call_class) %>%
  summarize(count = n(),
            sum_tot_chkout = sum(tot_chkout)) %>%
  arrange(desc(sum_tot_chkout))
~~~
{: .language-r}



~~~
# A tibble: 34 x 3
   call_class count sum_tot_chkout
   <chr>      <int>          <dbl>
 1 E            487           3114
 2 <NA>         459           3024
 3 H           1142           2902
 4 P            800           2645
 5 F            240           1306
 6 Q            333           1305
 7 B            426           1233
 8 R            193            981
 9 L            358            862
10 5             60            838
# … with 24 more rows
…
